(module 629004113921 (layer F.Cu) (tedit 6175A07C)
  (descr "WR-COM Plug SMT With Clip USB Type A, 4 pins")
  (fp_text reference REF** (at 0.5055 -4.7109) (layer F.SilkS)
    (effects (font (size 1 1) (thickness 0.15)))
  )
  (fp_text value 629004113921 (at 14.6155 0.2684) (layer F.Fab)
    (effects (font (size 1 1) (thickness 0.15)))
  )
  (fp_text user 1 (at 4.705 -0.6) (layer F.SilkS)
    (effects (font (size 1 1) (thickness 0.15)))
  )
  (fp_text user PCB~END (at 2 2.95) (layer F.Fab)
    (effects (font (size 0.48 0.48) (thickness 0.15)))
  )
  (fp_text user 4 (at -5.105 -0.62) (layer F.Fab)
    (effects (font (size 1 1) (thickness 0.15)))
  )
  (fp_text user 1 (at 4.705 -0.6) (layer F.Fab)
    (effects (font (size 1 1) (thickness 0.15)))
  )
  (fp_line (start 6 16.3) (end 6 -2.5) (layer F.Fab) (width 0.127))
  (fp_line (start 6 -2.5) (end -6 -2.5) (layer F.Fab) (width 0.127))
  (fp_line (start -6 -2.5) (end -6 16.3) (layer F.Fab) (width 0.127))
  (fp_line (start -6 16.3) (end 6 16.3) (layer F.Fab) (width 0.127))
  (fp_line (start 4 11.65) (end 4 9.65) (layer F.Fab) (width 0.127))
  (fp_line (start 4 9.65) (end 2 9.65) (layer F.Fab) (width 0.127))
  (fp_line (start 2 9.65) (end 2 11.65) (layer F.Fab) (width 0.127))
  (fp_line (start 2 11.65) (end 4 11.65) (layer F.Fab) (width 0.127))
  (fp_line (start -2 11.65) (end -2 9.65) (layer F.Fab) (width 0.127))
  (fp_line (start -2 9.65) (end -4 9.65) (layer F.Fab) (width 0.127))
  (fp_line (start -4 9.65) (end -4 11.65) (layer F.Fab) (width 0.127))
  (fp_line (start -4 11.65) (end -2 11.65) (layer F.Fab) (width 0.127))
  (fp_line (start 6 2.25) (end -6 2.25) (layer F.SilkS) (width 0.127))
  (fp_line (start -4.4 -2.5) (end -6 -2.5) (layer F.SilkS) (width 0.127))
  (fp_line (start -6 -2.5) (end -6 2.25) (layer F.SilkS) (width 0.127))
  (fp_line (start 4.4 -2.5) (end 6 -2.5) (layer F.SilkS) (width 0.127))
  (fp_line (start 6 -2.5) (end 6 2.25) (layer F.SilkS) (width 0.127))
  (fp_poly (pts (xy -6.2 -3.4) (xy 6.2 -3.4) (xy 6.2 2.4) (xy -6.2 2.4)) (layer F.CrtYd) (width 0.127))
  (pad 4 smd rect (at -3.5 -2.35) (size 1.3 1.7) (layers F.Cu F.Paste F.Mask))
  (pad 1 smd rect (at 3.5 -2.35) (size 1.3 1.7) (layers F.Cu F.Paste F.Mask))
  (pad 3 smd rect (at -1 -2.35) (size 1.3 1.7) (layers F.Cu F.Paste F.Mask))
  (pad 2 smd rect (at 1 -2.35) (size 1.3 1.7) (layers F.Cu F.Paste F.Mask))
  (pad SHELL thru_hole circle (at -2.25 0) (size 2.85 2.85) (drill 1.9) (layers *.Cu *.Mask))
  (pad SHELL1 thru_hole circle (at 2.25 0) (size 2.85 2.85) (drill 1.9) (layers *.Cu *.Mask))
)
