EESchema Schematic File Version 4
EELAYER 30 0
EELAYER END
$Descr A4 11693 8268
encoding utf-8
Sheet 1 1
Title "rfm69stick"
Date "2021-10-20"
Rev "1a"
Comp "hamlabs.no"
Comment1 ""
Comment2 ""
Comment3 ""
Comment4 ""
$EndDescr
$Comp
L Connector:Conn_Coaxial J2
U 1 1 616AEDFF
P 10400 1200
F 0 "J2" H 10500 1175 50  0000 L CNN
F 1 "ANT" H 10500 1084 50  0000 L CNN
F 2 "Connector_Coaxial:SMA_Amphenol_132289_EdgeMount" H 10400 1200 50  0001 C CNN
F 3 " ~" H 10400 1200 50  0001 C CNN
	1    10400 1200
	0    -1   -1   0   
$EndComp
$Comp
L RF_Module:RFM69HCW U3
U 1 1 616B382A
P 9550 2100
F 0 "U3" H 9100 2800 50  0000 C CNN
F 1 "RFM69HCW" H 9250 2700 50  0000 C CNN
F 2 "RF_Module:HOPERF_RFM9XW_SMD" H 6250 3750 50  0001 C CNN
F 3 "https://www.hoperf.com/data/upload/portal/20181127/5bfcb8284d838.pdf" H 6250 3750 50  0001 C CNN
	1    9550 2100
	1    0    0    -1  
$EndComp
$Comp
L power:GND #PWR0101
U 1 1 616B842F
P 10700 1200
F 0 "#PWR0101" H 10700 950 50  0001 C CNN
F 1 "GND" H 10705 1027 50  0000 C CNN
F 2 "" H 10700 1200 50  0001 C CNN
F 3 "" H 10700 1200 50  0001 C CNN
	1    10700 1200
	0    -1   -1   0   
$EndComp
$Comp
L power:GND #PWR0102
U 1 1 616B975C
P 9550 2800
F 0 "#PWR0102" H 9550 2550 50  0001 C CNN
F 1 "GND" H 9555 2627 50  0000 C CNN
F 2 "" H 9550 2800 50  0001 C CNN
F 3 "" H 9550 2800 50  0001 C CNN
	1    9550 2800
	1    0    0    -1  
$EndComp
Wire Wire Line
	10600 1200 10700 1200
Wire Wire Line
	9450 2700 9450 2800
Wire Wire Line
	9450 2800 9550 2800
Wire Wire Line
	9550 2700 9550 2800
Connection ~ 9550 2800
Wire Wire Line
	9650 2700 9650 2800
Wire Wire Line
	9650 2800 9550 2800
$Comp
L power:GND #PWR0103
U 1 1 616CC39C
P 1300 2450
F 0 "#PWR0103" H 1300 2200 50  0001 C CNN
F 1 "GND" H 1305 2277 50  0000 C CNN
F 2 "" H 1300 2450 50  0001 C CNN
F 3 "" H 1300 2450 50  0001 C CNN
	1    1300 2450
	1    0    0    -1  
$EndComp
Wire Wire Line
	1200 2300 1200 2450
Wire Wire Line
	1200 2450 1300 2450
Wire Wire Line
	1300 2300 1300 2350
Connection ~ 1300 2450
Wire Wire Line
	1750 1700 1700 1700
Wire Wire Line
	1600 2000 2050 2000
$Comp
L power:+5V #PWR0104
U 1 1 616CEC34
P 1150 4900
F 0 "#PWR0104" H 1150 4750 50  0001 C CNN
F 1 "+5V" V 1165 5028 50  0000 L CNN
F 2 "" H 1150 4900 50  0001 C CNN
F 3 "" H 1150 4900 50  0001 C CNN
	1    1150 4900
	0    -1   -1   0   
$EndComp
$Comp
L power:+5V #PWR0105
U 1 1 616CF4DA
P 1750 1700
F 0 "#PWR0105" H 1750 1550 50  0001 C CNN
F 1 "+5V" V 1765 1828 50  0000 L CNN
F 2 "" H 1750 1700 50  0001 C CNN
F 3 "" H 1750 1700 50  0001 C CNN
	1    1750 1700
	0    1    1    0   
$EndComp
$Comp
L power:GND #PWR0106
U 1 1 616D013F
P 2200 5200
F 0 "#PWR0106" H 2200 4950 50  0001 C CNN
F 1 "GND" H 2205 5027 50  0000 C CNN
F 2 "" H 2200 5200 50  0001 C CNN
F 3 "" H 2200 5200 50  0001 C CNN
	1    2200 5200
	1    0    0    -1  
$EndComp
$Comp
L power:+3.3V #PWR0107
U 1 1 616D1404
P 3400 4800
F 0 "#PWR0107" H 3400 4650 50  0001 C CNN
F 1 "+3.3V" V 3415 4928 50  0000 L CNN
F 2 "" H 3400 4800 50  0001 C CNN
F 3 "" H 3400 4800 50  0001 C CNN
	1    3400 4800
	0    1    1    0   
$EndComp
$Comp
L power:+3.3V #PWR0108
U 1 1 616D3BB0
P 9550 1300
F 0 "#PWR0108" H 9550 1150 50  0001 C CNN
F 1 "+3.3V" H 9565 1473 50  0000 C CNN
F 2 "" H 9550 1300 50  0001 C CNN
F 3 "" H 9550 1300 50  0001 C CNN
	1    9550 1300
	1    0    0    -1  
$EndComp
Wire Wire Line
	9550 1300 9550 1600
$Comp
L Device:C C1
U 1 1 616E0314
P 1250 5050
F 0 "C1" H 1135 5004 50  0000 R CNN
F 1 "10µF" H 1135 5095 50  0000 R CNN
F 2 "Capacitor_SMD:C_0805_2012Metric" H 1288 4900 50  0001 C CNN
F 3 "~" H 1250 5050 50  0001 C CNN
F 4 "C15850" H 1250 5050 50  0001 C CNN "LCSC"
	1    1250 5050
	-1   0    0    1   
$EndComp
$Comp
L Device:C C2
U 1 1 616E158B
P 3300 4950
F 0 "C2" H 3415 4996 50  0000 L CNN
F 1 "1µF" H 3415 4905 50  0000 L CNN
F 2 "Capacitor_SMD:C_0805_2012Metric" H 3338 4800 50  0001 C CNN
F 3 "~" H 3300 4950 50  0001 C CNN
F 4 "C28323" H 3300 4950 50  0001 C CNN "LCSC"
	1    3300 4950
	1    0    0    -1  
$EndComp
$Comp
L power:GND #PWR0109
U 1 1 616E19AB
P 1250 5200
F 0 "#PWR0109" H 1250 4950 50  0001 C CNN
F 1 "GND" H 1255 5027 50  0000 C CNN
F 2 "" H 1250 5200 50  0001 C CNN
F 3 "" H 1250 5200 50  0001 C CNN
	1    1250 5200
	1    0    0    -1  
$EndComp
$Comp
L power:GND #PWR0110
U 1 1 616E1C01
P 3300 5100
F 0 "#PWR0110" H 3300 4850 50  0001 C CNN
F 1 "GND" H 3305 4927 50  0000 C CNN
F 2 "" H 3300 5100 50  0001 C CNN
F 3 "" H 3300 5100 50  0001 C CNN
	1    3300 5100
	1    0    0    -1  
$EndComp
Connection ~ 3300 4800
Wire Wire Line
	3300 4800 3400 4800
Wire Wire Line
	1150 4900 1250 4900
Connection ~ 1250 4900
Text Label 3250 1900 2    50   ~ 0
USB_D+
Text Label 3250 2250 2    50   ~ 0
USB_D-
Wire Wire Line
	2750 2250 3250 2250
Wire Wire Line
	2750 1900 3250 1900
Wire Wire Line
	9050 1800 8400 1800
Wire Wire Line
	9050 1900 8400 1900
Wire Wire Line
	9050 2000 8400 2000
Wire Wire Line
	9050 2100 8400 2100
Text Label 8400 1800 0    50   ~ 0
SCK
Text Label 8400 1900 0    50   ~ 0
MOSI
Text Label 8400 2000 0    50   ~ 0
MISO
Text Label 8400 2100 0    50   ~ 0
D8_CS
NoConn ~ 10050 2000
NoConn ~ 10050 2100
NoConn ~ 10050 2200
NoConn ~ 10050 2300
NoConn ~ 10050 2400
$Comp
L Regulator_Linear:AP2112K-3.3 U1
U 1 1 61709E4B
P 2200 4900
F 0 "U1" H 2200 5242 50  0000 C CNN
F 1 "AP2112K-3.3" H 2200 5151 50  0000 C CNN
F 2 "Package_TO_SOT_SMD:SOT-23-5" H 2200 5225 50  0001 C CNN
F 3 "https://www.diodes.com/assets/Datasheets/AP2112.pdf" H 2200 5000 50  0001 C CNN
F 4 "C51118" H 2200 4900 50  0001 C CNN "LCSC"
	1    2200 4900
	1    0    0    -1  
$EndComp
Wire Wire Line
	1900 4800 1250 4800
Wire Wire Line
	1250 4800 1250 4900
$Comp
L Device:R R2
U 1 1 6171AB7C
P 2600 1900
F 0 "R2" H 2670 1946 50  0000 L CNN
F 1 "22Ω" H 2670 1855 50  0000 L CNN
F 2 "Resistor_SMD:R_0603_1608Metric" V 2530 1900 50  0001 C CNN
F 3 "~" H 2600 1900 50  0001 C CNN
F 4 "C23345" H 2600 1900 50  0001 C CNN "LCSC"
	1    2600 1900
	0    1    1    0   
$EndComp
$Comp
L Device:R R3
U 1 1 6171B9C7
P 2600 2250
F 0 "R3" H 2670 2296 50  0000 L CNN
F 1 "22Ω" H 2670 2205 50  0000 L CNN
F 2 "Resistor_SMD:R_0603_1608Metric" V 2530 2250 50  0001 C CNN
F 3 "~" H 2600 2250 50  0001 C CNN
F 4 "C23345" H 2600 2250 50  0001 C CNN "LCSC"
	1    2600 2250
	0    1    1    0   
$EndComp
Wire Wire Line
	1600 1900 2450 1900
Wire Wire Line
	2050 2000 2050 2250
Wire Wire Line
	2050 2250 2450 2250
Wire Wire Line
	10050 2500 10500 2500
Wire Wire Line
	10400 1400 10400 1800
Wire Wire Line
	10400 1800 10050 1800
Text Label 10500 2500 2    50   ~ 0
D7_IRQ
Text Label 8400 2300 0    50   ~ 0
D4_RST
$Comp
L Device:R R4
U 1 1 61743840
P 7950 2150
F 0 "R4" H 8020 2196 50  0000 L CNN
F 1 "100kΩ" H 8020 2105 50  0000 L CNN
F 2 "Resistor_SMD:R_0603_1608Metric" V 7880 2150 50  0001 C CNN
F 3 "~" H 7950 2150 50  0001 C CNN
F 4 "C25803" H 7950 2150 50  0001 C CNN "LCSC"
	1    7950 2150
	-1   0    0    1   
$EndComp
$Comp
L power:+3.3V #PWR09
U 1 1 61745A0F
P 7950 2000
F 0 "#PWR09" H 7950 1850 50  0001 C CNN
F 1 "+3.3V" H 7965 2173 50  0000 C CNN
F 2 "" H 7950 2000 50  0001 C CNN
F 3 "" H 7950 2000 50  0001 C CNN
	1    7950 2000
	1    0    0    -1  
$EndComp
Wire Wire Line
	7950 2300 9050 2300
$Comp
L Device:R R1
U 1 1 6174C353
P 1750 4900
F 0 "R1" H 1820 4946 50  0000 L CNN
F 1 "100kΩ" H 1820 4855 50  0000 L CNN
F 2 "Resistor_SMD:R_0603_1608Metric" V 1680 4900 50  0001 C CNN
F 3 "~" H 1750 4900 50  0001 C CNN
F 4 "C25803" H 1750 4900 50  0001 C CNN "LCSC"
	1    1750 4900
	0    1    1    0   
$EndComp
Wire Wire Line
	1600 4900 1250 4900
$Comp
L Device:C C3
U 1 1 6175E6B1
P 2800 4950
F 0 "C3" H 2915 4996 50  0000 L CNN
F 1 "10µF" H 2915 4905 50  0000 L CNN
F 2 "Capacitor_SMD:C_0805_2012Metric" H 2838 4800 50  0001 C CNN
F 3 "~" H 2800 4950 50  0001 C CNN
F 4 "C15850" H 2800 4950 50  0001 C CNN "LCSC"
	1    2800 4950
	1    0    0    -1  
$EndComp
$Comp
L power:GND #PWR01
U 1 1 6175EBDC
P 2800 5100
F 0 "#PWR01" H 2800 4850 50  0001 C CNN
F 1 "GND" H 2805 4927 50  0000 C CNN
F 2 "" H 2800 5100 50  0001 C CNN
F 3 "" H 2800 5100 50  0001 C CNN
	1    2800 5100
	1    0    0    -1  
$EndComp
Wire Wire Line
	2500 4800 2800 4800
Connection ~ 2800 4800
Wire Wire Line
	2800 4800 3300 4800
Wire Wire Line
	5300 3300 5150 3300
$Comp
L power:+5V #PWR06
U 1 1 61767969
P 5150 3300
F 0 "#PWR06" H 5150 3150 50  0001 C CNN
F 1 "+5V" V 5165 3428 50  0000 L CNN
F 2 "" H 5150 3300 50  0001 C CNN
F 3 "" H 5150 3300 50  0001 C CNN
	1    5150 3300
	0    -1   -1   0   
$EndComp
$Comp
L power:+3.3V #PWR02
U 1 1 61768044
P 4850 2050
F 0 "#PWR02" H 4850 1900 50  0001 C CNN
F 1 "+3.3V" V 4865 2178 50  0000 L CNN
F 2 "" H 4850 2050 50  0001 C CNN
F 3 "" H 4850 2050 50  0001 C CNN
	1    4850 2050
	1    0    0    -1  
$EndComp
$Comp
L power:GND #PWR03
U 1 1 61768638
P 4450 2800
F 0 "#PWR03" H 4450 2550 50  0001 C CNN
F 1 "GND" H 4455 2627 50  0000 C CNN
F 2 "" H 4450 2800 50  0001 C CNN
F 3 "" H 4450 2800 50  0001 C CNN
	1    4450 2800
	0    1    1    0   
$EndComp
$Comp
L Device:Resonator Y1
U 1 1 6176AE69
P 4800 2800
F 0 "Y1" V 4754 2910 50  0000 L CNN
F 1 "8MHz" V 4845 2910 50  0000 L CNN
F 2 "Crystal:Resonator_SMD_muRata_CSTxExxV-3Pin_3.0x1.1mm" H 4775 2800 50  0001 C CNN
F 3 "~" H 4775 2800 50  0001 C CNN
F 4 "C110614" H 4800 2800 50  0001 C CNN "LCSC"
	1    4800 2800
	0    1    1    0   
$EndComp
Wire Wire Line
	4800 2650 5300 2650
Wire Wire Line
	5300 2650 5300 2700
Wire Wire Line
	4800 2950 5300 2950
Wire Wire Line
	5300 2950 5300 2900
Wire Wire Line
	4450 2800 4600 2800
$Comp
L Device:C C4
U 1 1 61778FB9
P 4650 3100
F 0 "C4" H 4765 3146 50  0000 L CNN
F 1 "1µF" H 4765 3055 50  0000 L CNN
F 2 "Capacitor_SMD:C_0805_2012Metric" H 4688 2950 50  0001 C CNN
F 3 "~" H 4650 3100 50  0001 C CNN
F 4 "C28323" H 4650 3100 50  0001 C CNN "LCSC"
	1    4650 3100
	0    1    1    0   
$EndComp
$Comp
L power:GND #PWR04
U 1 1 6177B6B9
P 4450 3100
F 0 "#PWR04" H 4450 2850 50  0001 C CNN
F 1 "GND" H 4455 2927 50  0000 C CNN
F 2 "" H 4450 3100 50  0001 C CNN
F 3 "" H 4450 3100 50  0001 C CNN
	1    4450 3100
	0    1    1    0   
$EndComp
Wire Wire Line
	4450 3100 4500 3100
Wire Wire Line
	4800 3100 5300 3100
Wire Wire Line
	5300 3500 4650 3500
Wire Wire Line
	5300 3600 4650 3600
Text Label 4650 3500 0    50   ~ 0
USB_D+
Text Label 4650 3600 0    50   ~ 0
USB_D-
$Comp
L Device:C C5
U 1 1 61785621
P 4650 3800
F 0 "C5" H 4765 3846 50  0000 L CNN
F 1 "1µF" H 4765 3755 50  0000 L CNN
F 2 "Capacitor_SMD:C_0805_2012Metric" H 4688 3650 50  0001 C CNN
F 3 "~" H 4650 3800 50  0001 C CNN
F 4 "C28323" H 4650 3800 50  0001 C CNN "LCSC"
	1    4650 3800
	0    1    1    0   
$EndComp
$Comp
L power:GND #PWR05
U 1 1 61785A1D
P 4450 3800
F 0 "#PWR05" H 4450 3550 50  0001 C CNN
F 1 "GND" H 4455 3627 50  0000 C CNN
F 2 "" H 4450 3800 50  0001 C CNN
F 3 "" H 4450 3800 50  0001 C CNN
	1    4450 3800
	0    1    1    0   
$EndComp
Wire Wire Line
	4450 3800 4500 3800
Wire Wire Line
	4800 3800 5300 3800
Wire Wire Line
	4350 2500 4850 2500
$Comp
L power:GND #PWR07
U 1 1 6178F540
P 5850 5900
F 0 "#PWR07" H 5850 5650 50  0001 C CNN
F 1 "GND" H 5855 5727 50  0000 C CNN
F 2 "" H 5850 5900 50  0001 C CNN
F 3 "" H 5850 5900 50  0001 C CNN
	1    5850 5900
	1    0    0    -1  
$EndComp
Wire Wire Line
	5800 5800 5850 5800
Wire Wire Line
	5850 5800 5850 5900
Wire Wire Line
	5900 5800 5850 5800
Connection ~ 5850 5800
$Comp
L power:+3.3V #PWR08
U 1 1 61793798
P 7250 4300
F 0 "#PWR08" H 7250 4150 50  0001 C CNN
F 1 "+3.3V" V 7265 4428 50  0000 L CNN
F 2 "" H 7250 4300 50  0001 C CNN
F 3 "" H 7250 4300 50  0001 C CNN
	1    7250 4300
	1    0    0    -1  
$EndComp
Wire Wire Line
	6500 4600 7250 4600
Wire Wire Line
	6500 4700 7000 4700
Text Label 7000 4700 2    50   ~ 0
D7_IRQ
Wire Wire Line
	6500 2900 7000 2900
Text Label 7000 2900 2    50   ~ 0
D8_CS
Wire Wire Line
	6500 2600 7000 2600
Wire Wire Line
	6500 2700 7000 2700
Wire Wire Line
	6500 2800 7000 2800
Text Label 7000 2600 2    50   ~ 0
SCK
Text Label 7000 2700 2    50   ~ 0
MOSI
Text Label 7000 2800 2    50   ~ 0
MISO
Wire Wire Line
	5900 2200 5900 1950
Wire Wire Line
	5900 1950 5950 1950
Wire Wire Line
	6000 1950 6000 2200
$Comp
L power:+3.3V #PWR0111
U 1 1 617A1F03
P 5950 1850
F 0 "#PWR0111" H 5950 1700 50  0001 C CNN
F 1 "+3.3V" V 5965 1978 50  0000 L CNN
F 2 "" H 5950 1850 50  0001 C CNN
F 3 "" H 5950 1850 50  0001 C CNN
	1    5950 1850
	1    0    0    -1  
$EndComp
Wire Wire Line
	5950 1850 5950 1950
Connection ~ 5950 1950
Wire Wire Line
	5950 1950 6000 1950
$Comp
L MCU_Microchip_ATmega:ATmega32U4-MU U2
U 1 1 617B7E8F
P 5900 4000
F 0 "U2" H 5900 2111 50  0000 C CNN
F 1 "ATmega32U4-MU" H 5900 2020 50  0000 C CNN
F 2 "Package_DFN_QFN:QFN-44-1EP_7x7mm_P0.5mm_EP5.2x5.2mm" H 5900 4000 50  0001 C CIN
F 3 "http://ww1.microchip.com/downloads/en/DeviceDoc/Atmel-7766-8-bit-AVR-ATmega16U4-32U4_Datasheet.pdf" H 5900 4000 50  0001 C CNN
F 4 "C112161" H 5900 4000 50  0001 C CNN "LCSC"
	1    5900 4000
	1    0    0    -1  
$EndComp
Wire Wire Line
	6500 4100 7000 4100
Text Label 7000 4100 2    50   ~ 0
D4_RST
NoConn ~ 6500 5400
NoConn ~ 6500 5300
NoConn ~ 6500 5200
NoConn ~ 6500 5100
NoConn ~ 6500 5000
NoConn ~ 6500 4900
NoConn ~ 6500 4400
NoConn ~ 6500 4300
NoConn ~ 6500 4200
NoConn ~ 6500 4000
NoConn ~ 6500 3900
NoConn ~ 6500 3800
NoConn ~ 6500 3700
NoConn ~ 6500 3500
NoConn ~ 6500 3400
NoConn ~ 6500 3200
NoConn ~ 6500 3100
NoConn ~ 6500 3000
NoConn ~ 6500 2500
$Comp
L power:PWR_FLAG #FLG0101
U 1 1 618A381F
P 1700 1700
F 0 "#FLG0101" H 1700 1775 50  0001 C CNN
F 1 "PWR_FLAG" H 1700 1873 50  0000 C CNN
F 2 "" H 1700 1700 50  0001 C CNN
F 3 "~" H 1700 1700 50  0001 C CNN
	1    1700 1700
	1    0    0    -1  
$EndComp
Connection ~ 1700 1700
Wire Wire Line
	1700 1700 1600 1700
$Comp
L power:PWR_FLAG #FLG0102
U 1 1 618A41E5
P 1300 2350
F 0 "#FLG0102" H 1300 2425 50  0001 C CNN
F 1 "PWR_FLAG" V 1300 2478 50  0000 L CNN
F 2 "" H 1300 2350 50  0001 C CNN
F 3 "~" H 1300 2350 50  0001 C CNN
	1    1300 2350
	0    1    1    0   
$EndComp
Connection ~ 1300 2350
Wire Wire Line
	1300 2350 1300 2450
NoConn ~ 5800 2200
$Comp
L Device:R R5
U 1 1 618AE5DC
P 7250 4450
F 0 "R5" H 7320 4496 50  0000 L CNN
F 1 "100kΩ" H 7320 4405 50  0000 L CNN
F 2 "Resistor_SMD:R_0603_1608Metric" V 7180 4450 50  0001 C CNN
F 3 "~" H 7250 4450 50  0001 C CNN
F 4 "C25803" H 7250 4450 50  0001 C CNN "LCSC"
	1    7250 4450
	-1   0    0    1   
$EndComp
$Comp
L Connector_Generic:Conn_02x03_Odd_Even J3
U 1 1 61747031
P 1900 6500
F 0 "J3" H 1950 6817 50  0000 C CNN
F 1 "ICSP" H 1950 6726 50  0000 C CNN
F 2 "Connector_PinHeader_2.54mm:PinHeader_2x03_P2.54mm_Vertical_SMD" H 1900 6500 50  0001 C CNN
F 3 "~" H 1900 6500 50  0001 C CNN
	1    1900 6500
	1    0    0    -1  
$EndComp
Wire Wire Line
	1700 6400 1250 6400
Wire Wire Line
	1700 6500 1250 6500
Wire Wire Line
	1700 6600 1250 6600
Wire Wire Line
	2200 6400 2650 6400
Wire Wire Line
	2200 6500 2650 6500
Wire Wire Line
	2200 6600 2650 6600
Text Label 1250 6400 0    50   ~ 0
MISO
Text Label 1250 6500 0    50   ~ 0
SCK
Text Label 1250 6600 0    50   ~ 0
RESET
Text Label 2650 6500 2    50   ~ 0
MOSI
$Comp
L power:+3.3V #PWR010
U 1 1 617544ED
P 2650 6400
F 0 "#PWR010" H 2650 6250 50  0001 C CNN
F 1 "+3.3V" H 2665 6573 50  0000 C CNN
F 2 "" H 2650 6400 50  0001 C CNN
F 3 "" H 2650 6400 50  0001 C CNN
	1    2650 6400
	1    0    0    -1  
$EndComp
$Comp
L power:GND #PWR011
U 1 1 6175643F
P 2650 6600
F 0 "#PWR011" H 2650 6350 50  0001 C CNN
F 1 "GND" H 2655 6427 50  0000 C CNN
F 2 "" H 2650 6600 50  0001 C CNN
F 3 "" H 2650 6600 50  0001 C CNN
	1    2650 6600
	1    0    0    -1  
$EndComp
$Comp
L Device:R R6
U 1 1 6175BC51
P 4850 2200
F 0 "R6" H 4920 2246 50  0000 L CNN
F 1 "100kΩ" H 4920 2155 50  0000 L CNN
F 2 "Resistor_SMD:R_0603_1608Metric" V 4780 2200 50  0001 C CNN
F 3 "~" H 4850 2200 50  0001 C CNN
F 4 "C25803" H 4850 2200 50  0001 C CNN "LCSC"
	1    4850 2200
	-1   0    0    1   
$EndComp
Wire Wire Line
	4850 2350 4850 2500
Connection ~ 4850 2500
Wire Wire Line
	4850 2500 5300 2500
Text Label 4350 2500 0    50   ~ 0
RESET
$Comp
L Connector:USB_A J1
U 1 1 616AC923
P 1300 1900
F 0 "J1" H 1357 2367 50  0000 C CNN
F 1 "USB_A" H 1357 2276 50  0000 C CNN
F 2 "rfm69stick:629004113921" H 1450 1850 50  0001 C CNN
F 3 " ~" H 1450 1850 50  0001 C CNN
	1    1300 1900
	1    0    0    -1  
$EndComp
$EndSCHEMATC
